[
    {
        "front": "Funktion: df.head()",
        "back": "df.head(8): Gibt die ersten 8 Zeilen des DataFrame df zurück."
    },
    {
        "front": "Funktion: df.tail()",
        "back": "df.tail(4): Gibt die letzten 4 Zeilen des DataFrame df zurück."
    },
    {
        "front": "Funktion: len(df)",
        "back": "Gibt die Gesamtanzahl der Zeilen des Dataframe df zurück."
    },
    {
        "front": "Funktion: df.dtypes",
        "back": "Gibt den Datentyp des Dataframe df zurück."
    }
]